<?xml version="1.0" encoding="UTF-8" ?>
<!DOCTYPE svg PUBLIC "-//W3C//DTD SVG 1.1//EN" "http://www.w3.org/Graphics/SVG/1.1/DTD/svg11.dtd">
<svg width="650pt" height="209pt" viewBox="0 0 650 209" version="1.1" xmlns="http://www.w3.org/2000/svg">
<g id="#000ac1ff">
<path fill="#000ac1" opacity="1.00" d=" M 94.01 72.79 C 99.34 72.71 104.67 72.74 110.00 72.76 C 109.98 78.18 109.94 83.61 110.15 89.03 C 110.36 99.63 110.26 110.23 110.20 120.83 C 104.81 121.04 99.41 121.04 94.01 120.99 C 94.00 104.92 93.99 88.86 94.01 72.79 Z" />
<path fill="#000ac1" opacity="1.00" d=" M 520.93 88.11 C 522.23 88.13 523.55 88.15 524.87 88.16 C 524.96 89.51 525.06 90.87 525.18 92.23 C 524.36 92.26 522.74 92.32 521.93 92.34 C 519.79 92.06 520.97 89.46 520.93 88.11 Z" />
<path fill="#000ac1" opacity="1.00" d=" M 200.72 89.03 C 206.08 89.01 211.45 88.97 216.81 89.00 C 216.68 104.98 216.73 120.96 216.78 136.94 C 211.39 137.05 205.99 136.99 200.59 137.00 C 200.54 121.02 200.29 105.01 200.72 89.03 Z" />
<path fill="#000ac1" opacity="1.00" d=" M 344.59 88.79 C 349.06 88.92 353.84 88.01 358.03 89.98 C 364.29 93.06 364.80 103.18 358.98 106.96 C 354.75 109.74 349.45 108.45 344.71 108.80 C 344.31 102.14 344.52 95.46 344.59 88.79 M 349.01 92.72 C 348.98 96.77 348.95 100.83 349.09 104.88 C 351.53 104.65 354.38 105.17 356.39 103.43 C 359.72 100.77 358.91 94.53 354.81 93.10 C 352.93 92.56 350.94 92.79 349.01 92.72 Z" />
<path fill="#000ac1" opacity="1.00" d=" M 411.11 90.11 C 414.06 87.87 419.86 88.12 421.14 92.15 C 421.94 94.98 419.50 97.09 417.83 98.98 C 418.54 99.69 419.25 100.40 419.97 101.11 C 420.97 100.29 421.96 99.45 422.97 98.62 C 423.81 98.70 425.49 98.87 426.33 98.95 C 425.26 100.70 424.10 102.40 422.93 104.08 C 424.26 105.71 425.60 107.33 426.90 108.98 C 424.55 108.84 422.16 108.65 420.11 107.39 C 417.44 108.80 414.27 109.83 411.32 108.60 C 408.92 107.92 407.35 105.48 407.72 103.00 C 407.61 100.75 409.63 99.43 411.04 98.02 C 410.06 95.55 408.64 92.20 411.11 90.11 M 413.75 93.03 C 413.84 93.79 414.02 95.31 414.11 96.07 C 416.15 96.14 417.40 94.88 418.19 93.13 C 416.98 92.22 414.43 90.85 413.75 93.03 M 412.29 104.64 C 413.73 106.65 416.45 105.57 417.92 104.19 C 416.63 102.83 415.33 101.47 414.01 100.14 C 412.81 101.31 411.11 102.83 412.29 104.64 Z" />
<path fill="#000ac1" opacity="1.00" d=" M 431.80 88.78 C 433.84 88.76 435.90 88.76 437.95 88.76 C 439.50 92.62 440.82 96.58 442.71 100.30 C 444.30 96.51 445.78 92.68 447.20 88.83 C 449.27 88.78 451.33 88.76 453.41 88.75 C 453.47 95.43 453.71 102.13 453.27 108.81 C 451.87 108.80 450.47 108.79 449.07 108.80 C 448.95 104.47 449.10 100.14 448.83 95.82 C 446.93 100.06 445.48 104.49 443.64 108.76 C 443.10 108.74 442.02 108.68 441.49 108.65 C 439.84 104.34 438.39 99.94 436.28 95.83 C 436.20 100.15 436.35 104.47 436.11 108.78 C 434.70 108.77 433.29 108.77 431.89 108.78 C 431.61 102.12 431.75 95.45 431.80 88.78 Z" />
<path fill="#000ac1" opacity="1.00" d=" M 481.42 88.91 C 482.80 88.89 484.18 88.89 485.58 88.91 C 485.49 92.47 485.43 96.04 485.69 99.59 C 487.47 98.02 489.07 96.27 490.50 94.38 C 492.08 94.30 493.67 94.25 495.26 94.21 C 493.77 96.62 491.92 98.76 490.09 100.90 C 492.11 103.49 494.05 106.16 495.90 108.88 C 494.13 108.79 492.36 108.68 490.60 108.54 C 489.34 106.73 488.40 104.29 485.98 103.81 C 485.73 105.44 485.55 107.09 485.41 108.73 C 484.08 108.73 482.75 108.73 481.44 108.73 C 481.52 102.12 481.53 95.51 481.42 88.91 Z" />
<path fill="#000ac1" opacity="1.00" d=" M 381.38 90.21 C 382.51 90.20 383.65 90.19 384.80 90.17 C 384.91 91.44 385.01 92.72 385.12 94.00 C 385.83 94.10 387.26 94.30 387.97 94.40 C 387.96 95.47 387.97 96.55 387.99 97.62 C 387.24 97.70 385.74 97.86 384.98 97.94 C 385.00 100.32 385.02 102.70 385.07 105.08 C 385.81 105.18 387.28 105.38 388.02 105.49 C 388.06 106.61 388.11 107.73 388.16 108.86 C 386.00 108.67 382.74 109.91 381.51 107.45 C 379.97 103.99 382.81 98.85 378.65 96.73 C 377.85 95.25 379.85 94.47 380.54 93.49 C 380.92 92.42 381.20 91.33 381.38 90.21 Z" />
<path fill="#000ac1" opacity="1.00" d=" M 512.57 90.27 C 513.81 90.27 515.05 90.28 516.30 90.28 C 516.27 92.64 517.37 94.45 519.62 95.29 C 519.00 96.85 517.71 97.93 516.60 99.13 C 516.08 101.96 516.10 105.42 519.56 106.17 C 519.49 106.89 519.37 108.33 519.31 109.06 C 517.24 108.78 514.50 109.59 513.02 107.70 C 512.04 104.70 512.61 101.45 512.61 98.35 C 511.94 98.15 510.59 97.75 509.92 97.55 C 510.02 95.81 510.05 93.88 512.23 93.59 C 512.34 92.48 512.46 91.38 512.57 90.27 Z" />
<path fill="#000ac1" opacity="1.00" d=" M 364.92 95.43 C 368.58 93.83 374.16 92.40 376.84 96.35 C 378.16 100.31 377.39 104.69 377.24 108.80 C 374.17 108.36 371.11 108.81 368.05 108.92 C 363.96 108.91 362.55 102.83 365.64 100.57 C 368.01 98.80 371.04 99.92 373.69 100.12 C 373.22 95.83 368.59 97.47 366.01 98.57 C 365.49 97.58 365.21 96.50 364.92 95.43 M 369.46 102.50 C 368.27 102.77 367.29 104.66 368.54 105.44 C 369.58 106.79 371.56 106.20 372.94 105.82 C 374.95 103.54 371.51 101.41 369.46 102.50 Z" />
<path fill="#000ac1" opacity="1.00" d=" M 389.07 96.59 C 392.15 93.22 398.62 92.50 401.52 96.40 C 402.51 100.44 401.87 104.69 401.89 108.81 C 398.65 108.31 395.42 108.93 392.19 108.92 C 388.33 108.27 387.22 102.45 390.48 100.39 C 392.92 98.80 395.81 99.92 398.37 100.51 C 398.03 99.58 397.65 98.66 397.22 97.77 C 395.21 96.50 392.87 97.87 390.87 98.44 C 390.42 97.98 389.52 97.06 389.07 96.59 M 394.33 102.37 C 392.41 102.68 393.02 104.69 392.85 106.07 C 394.48 106.07 396.11 106.03 397.74 105.94 C 397.81 105.18 397.94 103.68 398.01 102.92 C 396.78 102.72 395.58 102.22 394.33 102.37 Z" />
<path fill="#000ac1" opacity="1.00" d=" M 456.07 95.92 C 459.53 93.65 464.87 92.62 468.00 95.92 C 469.79 99.95 468.80 104.56 468.89 108.83 C 465.64 108.28 462.41 108.85 459.16 108.93 C 455.11 108.43 454.04 102.34 457.41 100.26 C 459.89 98.88 462.68 99.90 465.19 100.63 C 464.88 99.59 464.58 98.55 464.29 97.51 C 461.83 97.09 459.40 97.65 457.07 98.42 C 456.82 97.80 456.32 96.55 456.07 95.92 M 460.20 102.21 C 459.91 103.52 458.76 105.93 461.04 106.11 C 462.78 106.84 466.00 105.48 464.81 103.25 C 463.50 102.20 461.74 102.42 460.20 102.21 Z" />
<path fill="#000ac1" opacity="1.00" d=" M 471.94 94.17 C 474.66 94.53 477.41 94.67 480.10 94.00 C 480.18 94.78 480.33 96.33 480.41 97.11 C 478.88 97.74 477.09 97.96 475.86 99.13 C 475.60 102.33 475.76 105.55 475.74 108.75 C 474.46 108.76 473.19 108.78 471.92 108.80 C 471.64 103.93 471.62 99.04 471.94 94.17 Z" />
<path fill="#000ac1" opacity="1.00" d=" M 497.08 96.10 C 499.88 93.14 505.20 92.98 507.98 96.07 C 509.69 97.84 509.72 100.45 510.12 102.73 C 506.51 102.75 502.90 102.68 499.30 102.88 C 500.43 106.88 504.77 105.61 507.76 105.02 C 508.09 105.56 508.75 106.64 509.08 107.18 C 506.06 109.15 502.05 109.78 498.75 108.17 C 494.57 105.86 493.86 99.49 497.08 96.10 M 498.83 99.84 C 501.33 99.99 503.83 100.01 506.33 99.88 C 505.36 98.78 504.64 97.07 502.94 97.06 C 501.03 96.82 499.96 98.65 498.83 99.84 Z" />
<path fill="#000ac1" opacity="1.00" d=" M 521.09 94.20 C 522.36 94.20 523.63 94.20 524.91 94.20 C 525.05 99.06 525.05 103.94 524.91 108.80 C 523.63 108.79 522.36 108.79 521.09 108.80 C 520.95 103.93 520.95 99.06 521.09 94.20 Z" />
<path fill="#000ac1" opacity="1.00" d=" M 527.94 94.19 C 532.02 95.38 536.35 92.83 540.22 94.80 C 542.22 99.14 541.01 104.17 541.07 108.80 C 539.80 108.78 538.53 108.76 537.27 108.76 C 537.28 105.07 537.29 101.38 537.06 97.70 C 535.38 97.67 533.71 97.77 532.06 97.97 C 531.64 101.55 531.71 105.16 531.74 108.76 C 530.46 108.76 529.19 108.78 527.92 108.79 C 527.63 103.93 527.62 99.05 527.94 94.19 Z" />
<path fill="#000ac1" opacity="1.00" d=" M 544.58 106.42 C 541.97 102.56 542.71 95.02 548.05 94.01 C 551.33 94.12 554.61 94.71 557.90 94.18 C 557.82 99.58 558.59 105.12 557.48 110.44 C 555.29 115.77 548.03 115.15 543.77 112.89 C 544.17 111.85 544.59 110.82 545.02 109.79 C 547.18 110.42 549.48 111.84 551.76 110.91 C 553.28 110.42 553.57 108.66 554.26 107.43 C 551.13 108.62 546.92 109.61 544.58 106.42 M 549.35 104.79 C 550.73 105.18 552.14 104.65 553.54 104.53 C 553.69 102.40 553.73 100.27 553.70 98.15 C 552.21 98.03 550.60 97.07 549.18 97.86 C 546.45 99.09 546.69 103.61 549.35 104.79 Z" />
<path fill="#000ac1" opacity="1.00" d=" M 259.26 104.82 C 264.63 104.69 270.00 104.69 275.36 104.72 C 286.01 104.81 296.65 104.64 307.29 104.83 C 307.41 110.21 307.44 115.59 307.30 120.98 C 296.65 121.04 285.99 120.97 275.34 121.02 C 269.98 121.00 264.62 120.99 259.26 121.00 C 259.25 115.61 259.25 110.21 259.26 104.82 Z" />
<path fill="#000ac1" opacity="1.00" d=" M 421.08 119.91 C 419.27 118.20 421.66 115.45 423.76 116.11 C 425.46 116.75 425.09 118.73 425.39 120.15 C 423.97 120.35 422.13 121.45 421.08 119.91 Z" />
<path fill="#000ac1" opacity="1.00" d=" M 453.31 116.15 C 454.40 116.22 455.48 116.35 456.57 116.54 C 456.48 118.02 457.11 120.60 454.89 120.69 C 451.97 121.75 450.83 117.27 453.31 116.15 Z" />
<path fill="#000ac1" opacity="1.00" d=" M 350.04 116.96 C 351.92 117.00 353.81 117.05 355.69 117.12 C 357.72 123.10 360.30 128.87 362.31 134.85 C 362.97 134.05 363.63 133.25 364.29 132.44 C 366.44 133.39 368.68 134.54 371.11 134.03 C 371.16 133.54 371.27 132.57 371.33 132.08 C 368.28 130.89 362.46 130.91 363.24 126.19 C 364.21 120.81 371.54 121.37 375.08 123.91 C 374.66 124.82 374.25 125.73 373.86 126.65 C 371.50 125.67 368.89 124.61 366.48 126.08 C 368.97 128.56 373.89 127.49 375.28 131.13 C 376.70 134.90 372.46 137.98 369.00 137.24 C 365.46 136.44 361.91 136.58 358.33 137.03 C 357.88 135.87 357.42 134.71 356.96 133.55 C 354.26 133.52 351.58 133.51 348.89 133.47 C 348.22 134.66 347.57 135.86 346.90 137.05 C 345.35 137.00 343.80 136.98 342.26 136.95 C 344.93 130.32 347.40 123.61 350.04 116.96 M 352.54 121.83 C 351.54 124.43 350.63 127.06 349.87 129.73 C 351.86 129.75 353.85 129.75 355.84 129.76 C 354.93 127.04 354.11 124.25 352.54 121.83 Z" />
<path fill="#000ac1" opacity="1.00" d=" M 444.39 118.42 C 445.44 118.41 446.50 118.39 447.56 118.36 C 447.67 119.64 447.79 120.92 447.91 122.21 C 448.61 122.31 449.99 122.50 450.69 122.59 C 450.74 123.62 450.81 124.65 450.90 125.68 C 450.12 125.81 448.56 126.06 447.78 126.19 C 447.75 128.38 447.65 130.59 447.84 132.79 C 448.74 133.44 449.73 133.96 450.81 134.33 C 450.85 135.01 450.93 136.37 450.97 137.05 C 448.78 137.01 445.54 138.06 444.28 135.62 C 443.32 132.69 443.83 129.52 443.76 126.49 C 443.09 126.12 441.73 125.39 441.05 125.03 C 442.53 123.02 443.95 120.94 444.39 118.42 Z" />
<path fill="#000ac1" opacity="1.00" d=" M 378.90 122.83 C 381.80 121.20 385.13 122.32 388.01 123.36 C 387.76 124.49 387.49 125.62 387.22 126.74 C 385.22 125.79 383.08 125.19 380.85 125.14 C 380.62 128.37 384.25 127.75 386.34 128.73 C 389.69 129.76 389.69 135.21 386.55 136.52 C 383.08 138.10 378.97 137.26 375.87 135.23 C 376.19 134.57 376.85 133.26 377.18 132.60 C 379.73 133.51 382.37 134.22 385.11 133.96 C 384.72 130.76 380.89 131.48 378.73 130.29 C 375.59 129.06 375.91 124.04 378.90 122.83 Z" />
<path fill="#000ac1" opacity="1.00" d=" M 395.33 122.28 C 400.14 120.76 405.77 124.74 405.09 129.98 C 405.49 136.15 397.60 139.35 392.92 136.06 C 387.72 132.77 389.13 123.47 395.33 122.28 M 395.48 126.29 C 392.86 128.12 393.64 133.47 397.13 133.73 C 399.58 134.06 401.31 131.35 400.96 129.13 C 400.85 126.50 397.68 124.70 395.48 126.29 Z" />
<path fill="#000ac1" opacity="1.00" d=" M 409.20 123.26 C 412.43 121.21 417.08 121.66 419.56 124.68 C 419.11 125.23 418.19 126.32 417.73 126.87 C 416.19 126.47 414.68 125.83 413.07 125.81 C 409.48 126.43 409.16 132.25 412.49 133.50 C 414.31 134.04 416.11 133.04 417.87 132.69 C 418.30 133.29 419.16 134.49 419.58 135.10 C 416.39 137.94 411.03 138.17 407.94 135.07 C 404.88 131.74 405.40 125.82 409.20 123.26 Z" />
<path fill="#000ac1" opacity="1.00" d=" M 427.72 124.07 C 431.03 121.56 436.70 120.92 439.56 124.42 C 440.97 128.42 440.03 132.84 440.17 137.01 C 437.12 136.59 434.09 136.89 431.05 137.19 C 427.10 137.25 425.28 131.66 428.05 129.06 C 430.39 126.95 433.68 128.03 436.35 128.72 C 436.23 128.02 435.99 126.62 435.87 125.93 C 433.39 125.13 430.95 125.88 428.69 126.94 C 428.34 125.99 428.02 125.03 427.72 124.07 M 431.12 130.84 C 431.12 131.67 431.12 133.35 431.12 134.19 C 432.78 134.26 434.45 134.26 436.13 134.22 C 436.12 133.37 436.10 131.67 436.09 130.82 C 434.42 130.77 432.77 130.78 431.12 130.84 Z" />
<path fill="#000ac1" opacity="1.00" d=" M 452.32 122.40 C 453.52 122.40 454.72 122.40 455.93 122.38 C 456.52 127.24 456.23 132.15 456.19 137.03 C 454.85 136.99 453.53 136.96 452.20 136.92 C 452.29 132.08 452.20 127.24 452.32 122.40 Z" />
<path fill="#000ac1" opacity="1.00" d=" M 463.35 122.37 C 468.66 120.40 474.76 125.35 473.42 131.00 C 472.96 136.79 465.39 139.13 461.08 135.88 C 456.35 132.59 457.51 123.73 463.35 122.37 M 464.27 126.05 C 460.67 127.85 462.26 134.72 466.57 133.64 C 471.46 132.57 469.21 123.62 464.27 126.05 Z" />
<path fill="#000ac1" opacity="1.00" d=" M 475.37 122.20 C 475.94 122.32 477.08 122.56 477.64 122.69 C 481.13 124.00 485.49 120.02 488.22 123.75 C 489.82 127.91 488.69 132.62 488.98 137.00 C 487.65 137.00 486.33 137.00 485.01 137.00 C 484.95 133.75 485.23 130.47 484.78 127.23 C 484.12 124.75 480.37 125.51 479.37 127.36 C 479.10 130.58 479.29 133.81 479.20 137.03 C 477.87 137.00 476.54 136.96 475.21 136.92 C 475.30 132.01 475.16 127.11 475.37 122.20 Z" />
<path fill="#000ac1" opacity="1.00" d=" M 421.00 122.57 C 422.33 122.57 423.66 122.57 425.00 122.57 C 425.00 127.38 425.01 132.19 424.98 137.00 C 423.66 137.00 422.33 137.00 421.01 137.00 C 420.99 132.19 420.99 127.38 421.00 122.57 Z" />
</g>
<g id="#00bbf4ff">
<path fill="#00bbf4" opacity="1.00" d=" M 110.00 72.76 C 121.01 72.78 132.01 72.68 143.02 72.80 C 151.45 72.99 158.36 80.66 158.31 88.97 C 152.88 89.01 147.44 89.00 142.00 89.00 C 131.38 89.02 120.77 88.96 110.15 89.03 C 109.94 83.61 109.98 78.18 110.00 72.76 Z" />
<path fill="#00bbf4" opacity="1.00" d=" M 259.23 72.84 C 264.54 72.67 269.86 72.76 275.18 72.76 C 275.31 78.19 275.26 83.61 275.42 89.04 C 275.53 94.26 275.58 99.50 275.36 104.72 C 270.00 104.69 264.63 104.69 259.26 104.82 C 259.23 94.16 259.29 83.50 259.23 72.84 Z" />
<path fill="#00bbf4" opacity="1.00" d=" M 168.52 88.99 C 173.94 89.00 179.37 88.99 184.79 89.00 C 184.71 104.98 184.73 120.97 184.78 136.95 C 179.37 137.04 173.96 136.99 168.54 137.00 C 168.45 121.00 168.50 104.99 168.52 88.99 Z" />
<path fill="#00bbf4" opacity="1.00" d=" M 259.26 121.00 C 264.62 120.99 269.98 121.00 275.34 121.02 C 275.65 126.34 275.48 131.68 275.45 137.00 C 270.04 136.99 264.63 137.04 259.22 136.96 C 259.28 131.64 259.24 126.32 259.26 121.00 Z" />
</g>
<g id="#0089efff">
<path fill="#0089ef" opacity="1.00" d=" M 168.56 72.77 C 189.99 72.68 211.41 72.84 232.83 72.69 C 232.62 78.12 232.69 83.56 232.57 88.99 C 227.32 89.01 222.06 89.00 216.81 89.00 C 211.45 88.97 206.08 89.01 200.72 89.03 C 195.41 88.99 190.10 89.00 184.79 89.00 C 179.37 88.99 173.94 89.00 168.52 88.99 C 168.50 83.58 168.45 78.18 168.56 72.77 Z" />
<path fill="#0089ef" opacity="1.00" d=" M 307.20 89.00 C 312.65 88.99 318.09 89.00 323.54 89.00 C 323.40 105.00 323.60 121.00 323.44 137.00 C 318.03 136.99 312.62 137.04 307.22 136.95 C 307.30 131.63 307.19 126.30 307.30 120.98 C 307.44 115.59 307.41 110.21 307.29 104.83 C 307.20 99.55 307.30 94.27 307.20 89.00 Z" />
<path fill="#0089ef" opacity="1.00" d=" M 94.01 120.99 C 99.41 121.04 104.81 121.04 110.20 120.83 C 120.79 120.69 131.39 120.72 141.98 120.81 C 141.98 126.23 141.99 131.66 142.06 137.08 C 126.04 136.90 110.02 137.05 94.00 137.00 C 94.00 131.66 93.99 126.33 94.01 120.99 Z" />
</g>
<g id="#0048e3ff">
<path fill="#0048e3" opacity="1.00" d=" M 232.83 72.69 C 241.05 72.69 248.66 79.65 248.73 87.98 C 248.79 104.30 248.68 120.62 248.78 136.94 C 243.38 137.05 237.97 136.99 232.57 137.00 C 232.46 121.00 232.46 104.99 232.57 88.99 C 232.69 83.56 232.62 78.12 232.83 72.69 Z" />
<path fill="#0048e3" opacity="1.00" d=" M 275.18 72.76 C 286.13 72.77 297.08 72.68 308.04 72.80 C 316.56 72.85 323.56 80.63 323.54 89.00 C 318.09 89.00 312.65 88.99 307.20 89.00 C 296.61 89.02 286.01 88.95 275.42 89.04 C 275.26 83.61 275.31 78.19 275.18 72.76 Z" />
<path fill="#0048e3" opacity="1.00" d=" M 142.00 89.00 C 147.44 89.00 152.88 89.01 158.31 88.97 C 158.10 99.99 158.43 111.02 158.16 122.04 C 157.88 130.36 150.27 137.12 142.06 137.08 C 141.99 131.66 141.98 126.23 141.98 120.81 C 142.02 110.21 141.99 99.60 142.00 89.00 Z" />
</g>
</svg>
