<svg width="186.779" height="65.612" viewBox="0 0 49.419 17.36" version="1.1" id="svg24377" xmlns="http://www.w3.org/2000/svg">
  <g id="layer1" transform="translate(-7.648 -8.378)">
    <g id="g24294" transform="matrix(.0038 -.00394 -.00394 -.0038 11.099 15.336)">
      <g transform="matrix(.1 0 0 -.1 0 511)" id="g24292">
        <path d="M5482.7 4989c-774.2-98.1-1567.5-468.9-2148.2-1005.9-1196.7-1106.9-1586.6-2799.8-997.7-4320.9 139-359.9 477.1-932.3 610.6-1030.5 60-43.6 188.1-5.5 229 68.2 40.9 68.2 35.4 79-139 340.8-335.3 498.9-526.1 978.7-605.2 1515.7-283.5 1897.4 948.7 3658.5 2846.1 4070.1 177.2 38.2 346.2 51.8 708.8 51.8 362.6 0 531.6-13.6 708.8-51.8C8835.9 4160.3 10079 2001.3 9394.8-57c-133.6-398-291.7-687-588.8-1071.4-496.3-646.1-1202.3-1090.5-2042-1289.5-259-60-362.6-70.9-763.3-70.9-346.2-2.7-520.7 10.9-695.2 46.3-512.5 109-1014.1 324.4-1384.9 594.3-220.8 163.6-289 185.4-359.9 120-76.3-70.9-70.9-190.8 16.4-267.1 250.8-218.1 782.4-504.3 1169.5-632.5 430.7-139 727.9-185.4 1213.1-188.1 507.1 0 787.8 40.9 1218.6 177.2 1363.1 436.2 2349.9 1543 2655.2 2971.5 81.8 384.4 90 1057.7 13.6 1455.8C9531 3484.2 8157 4781.8 6464.1 4989c-283.5 35.4-706 32.7-981.4 0z" id="target"/>
        <path d="M5504.5 3887.6c-1537.5-278-2570.7-1736.5-2309-3260.4 70.9-411.6 275.3-905 477.1-1147.7 90-111.8 144.5-125.4 237.2-60 90 62.7 73.6 155.4-76.3 400.7-250.8 417.1-373.5 910.5-346.2 1409.4 19.1 359.8 95.4 654.3 250.8 967.8 245.4 496.2 646.1 899.6 1145 1145 392.6 196.3 605.2 242.6 1104.1 242.6 498.9 0 711.5-46.3 1104.1-242.6 823.3-406.2 1352.1-1218.6 1395.8-2140C8544.2 13.8 7731.8-1054.8 6543.2-1352c-283.5-70.9-880.5-62.7-1169.5 16.3-234.5 62.7-550.7 201.7-752.4 332.6-144.5 90-242.6 100.9-305.3 30-73.6-79.1-54.5-158.1 57.2-250.8 158.1-133.6 618.8-346.2 918.7-428 239.9-62.7 321.7-70.9 695.2-70.9 365.3 0 458 10.9 687 70.9 1016.8 270 1791 1041.4 2058.2 2058.3 57.2 218.1 70.9 329.9 73.6 646.1 5.4 556.1-79.1 910.5-321.7 1365.8-155.4 289-310.8 490.7-567 736-237.2 226.3-370.7 321.7-640.6 458-545.3 278.1-1196.9 378.9-1772.1 275.3z" id="path24284"/>
        <path d="M5605.4 2794.4c-98.2-19.1-280.8-87.2-408.9-149.9-567-280.8-951.4-902.3-954.2-1545.7 0-302.6 149.9-809.7 264.4-896.9 114.5-87.2 272.6 8.2 245.4 147.2-8.2 40.9-46.3 155.4-87.2 250.8-201.7 479.8-70.9 1095.9 321.7 1488.5 558.9 558.9 1423.1 564.3 1984.6 13.6 452.5-444.4 558.8-1063.2 278.1-1635.7-229-471.6-738.8-790.6-1262.2-790.6-182.7 0-455.3 62.7-599.7 136.3-133.6 68.2-223.5 68.2-280.8 5.5-109.1-120-32.7-237.2 215.4-332.6 419.8-158.1 796-171.7 1199.5-43.6 354.4 114.5 657 332.6 872.4 629.7 509.8 717 430.8 1649.3-193.5 2265.4-414.6 411.7-1014.3 583.5-1595 458z" id="path24286"/>
        <path d="M5747.2 1581.3c-65.4-32.7-136.3-87.2-160.8-122.7-54.5-87.2-27.3-193.5 62.7-234.4 60-27.3 87.2-24.5 177.2 27.3 133.6 79.1 229 76.3 310.8-8.2 84.5-81.8 87.2-199 13.6-294.4-30-38.2-54.5-95.4-54.5-125.4 0-73.6 92.7-166.3 163.6-166.3 133.6 0 291.7 294.4 264.4 490.7-35.5 275.3-234.5 466.2-501.6 482.5-122.8 8.2-185.5-2.7-275.4-49.1z" id="path24288"/>
        <path d="m3669.8-992.1-2031-2028.2-381.6 106.3c-403.5 114.5-485.2 125.4-602.5 81.8-90-35.4-463.4-395.3-518-496.2-49.1-95.4-49.1-275.3 0-373.5 57.3-109 133.6-149.9 422.5-229 141.8-38.2 264.4-79.1 275.3-92.7 10.9-10.9 46.4-130.8 81.8-267.1 32.7-133.6 79.1-280.8 100.9-321.7 81.8-160.8 327.1-231.7 493.4-144.5 40.9 21.8 174.5 141.7 299.9 269.9 193.6 196.3 229 245.4 242.6 340.8 13.6 106.3-32.7 340.8-106.3 531.6-35.4 95.4-136.3 122.7-226.3 62.7-81.8-54.5-84.5-100.8-21.8-365.3l46.3-199-190.8-174.5c-103.6-95.4-201.7-174.5-220.8-177.2-16.3 0-51.8 68.2-73.6 149.9-24.5 81.8-60 215.4-81.8 294.4-73.6 259-125.4 297.2-512.5 400.8-130.8 32.7-242.6 76.3-250.8 95.4-5.5 19.1 73.6 117.2 177.2 220.8L780-3118.5l239.9-65.4c130.9-35.4 319-87.2 419.8-114.5 141.7-38.2 204.5-43.6 286.2-21.8 87.2 24.5 430.7 354.4 2156.3 2077.3C5379.1 253.7 5932.5 823.5 5932.5 869.8c0 76.3-92.7 169-169 169-46.3 0-616.1-553.4-2093.7-2030.9z" id="arrow4target"/>
      </g>
    </g>
    <text xml:space="preserve" style="font-style:normal;font-variant:normal;font-weight:400;font-stretch:normal;font-size:7.76111px;line-height:1.25;font-family:Arial;-inkscape-font-specification:'Arial, Normal';font-variant-ligatures:normal;font-variant-caps:normal;font-variant-numeric:normal;font-variant-east-asian:normal;letter-spacing:2.11667px;stroke-width:.264583" x="15.49" y="13.809" id="text26501"><tspan id="span_smart" style="font-style:normal;font-variant:normal;font-weight:400;font-stretch:normal;font-size:7.76111px;font-family:Arial;-inkscape-font-specification:'Arial, Normal';font-variant-ligatures:normal;font-variant-caps:normal;font-variant-numeric:normal;font-variant-east-asian:normal;stroke-width:.264583" x="15.49" y="13.809">smart</tspan></text>
    <text xml:space="preserve" style="font-style:normal;font-variant:normal;font-weight:400;font-stretch:normal;font-size:12.7px;line-height:1.25;font-family:'Courier New';-inkscape-font-specification:'Courier New, Normal';font-variant-ligatures:normal;font-variant-caps:normal;font-variant-numeric:normal;font-variant-east-asian:normal;letter-spacing:.529167px;fill:gray;stroke-width:.264583" x="7.126" y="22.306" id="text28723"><tspan id="span_target" style="font-style:normal;font-variant:normal;font-weight:400;font-stretch:normal;font-size:12.7px;font-family:'Courier New';-inkscape-font-specification:'Courier New, Normal';font-variant-ligatures:normal;font-variant-caps:normal;font-variant-numeric:normal;font-variant-east-asian:normal;fill:gray;stroke-width:.264583" x="7.126" y="22.306">TARGET</tspan></text>
    <text xml:space="preserve" style="font-style:normal;font-variant:normal;font-weight:400;font-stretch:normal;font-size:2.46944px;line-height:1.25;font-family:'Cascadia Code';-inkscape-font-specification:'Cascadia Code, Normal';font-variant-ligatures:normal;font-variant-caps:normal;font-variant-numeric:normal;font-variant-east-asian:normal;letter-spacing:.396875px;stroke-width:.264583" x="7.848" y="25.714" id="text40031"><tspan id="span_assoc" style="font-style:normal;font-variant:normal;font-weight:400;font-stretch:normal;font-size:2.46944px;font-family:'Cascadia Code';-inkscape-font-specification:'Cascadia Code, Normal';font-variant-ligatures:normal;font-variant-caps:normal;font-variant-numeric:normal;font-variant-east-asian:normal;stroke-width:.264583" x="7.848" y="25.714">ASSOCIATION &amp; SOCIETY LISTS</tspan></text>
  </g>
</svg>
