<svg height="295.638" width="123.767" xmlns:xlink="http://www.w3.org/1999/xlink" xmlns="http://www.w3.org/2000/svg">
  <defs>
    <linearGradient id="d">
      <stop offset="0" style="stop-color:#d88721;stop-opacity:1"/>
      <stop offset=".5" style="stop-color:#a85c00;stop-opacity:1"/>
      <stop offset="1" style="stop-color:#643e0e;stop-opacity:1"/>
    </linearGradient>
    <linearGradient id="c">
      <stop offset="0" style="stop-color:#868686;stop-opacity:1"/>
      <stop offset="1" style="stop-color:#e2e2e2;stop-opacity:1"/>
    </linearGradient>
    <linearGradient id="b">
      <stop offset="0" style="stop-color:#ff41a0;stop-opacity:1"/>
      <stop offset="1" style="stop-color:#fd4bae;stop-opacity:1"/>
    </linearGradient>
    <linearGradient id="a">
      <stop offset="0" style="stop-color:#ff74ba;stop-opacity:1"/>
      <stop offset="1" style="stop-color:#ff91ce;stop-opacity:1"/>
    </linearGradient>
    <linearGradient gradientTransform="matrix(1.02912 0 0 1.75324 -70.395 -49.413)" gradientUnits="userSpaceOnUse" id="g" x1="168.252" x2="185.97" xlink:href="#d" y1="181.011" y2="172.517"/>
    <linearGradient gradientTransform="matrix(1.29397 0 0 1.39438 -96.314 -108.085)" gradientUnits="userSpaceOnUse" id="h" spreadMethod="reflect" x1="97.345" x2="99.207" xlink:href="#c" y1="112.844" y2="115.811"/>
    <linearGradient gradientTransform="matrix(1.10242 0 0 1.63667 -96.314 -106.372)" gradientUnits="userSpaceOnUse" id="e" x1="104.09" x2="123.825" xlink:href="#b" y1="83.359" y2="70.957"/>
    <linearGradient gradientTransform="matrix(1.03144 0 0 1.7493 -96.314 -106.372)" gradientUnits="userSpaceOnUse" id="f" x1="97.281" x2="127.847" xlink:href="#a" y1="84.255" y2="61.143"/>
  </defs>
  <path d="M14.812 3.62S22.529-.316 25.23.29c2.7.605 5.402 5.45 5.402 5.45l11.19 32.1-13.12 2.423z" style="fill:url(#e);fill-opacity:1;fill-rule:evenodd;stroke:url(#linearGradient5576);stroke-width:.335811pt;stroke-linecap:butt;stroke-linejoin:miter;stroke-opacity:1"/>
  <path d="M11.532 52.679.342 24.213c-.772-3.937-.386-5.451 2.701-10.296 3.087-4.846 8.103-7.874 10.804-9.69 2.701-1.818 2.701-1.212 2.701-1.212l13.12 33.917z" style="fill:url(#f);fill-opacity:1;fill-rule:evenodd;stroke:none;stroke-width:.335811pt;stroke-linecap:butt;stroke-linejoin:miter;stroke-opacity:1"/>
  <path d="m91.857 256.813 23.537 28.466 7.139-3.634-2.1-41.163-5.424-12.437-26.046 19.078z" style="fill:url(#g);fill-opacity:1;fill-rule:evenodd;stroke:#000;stroke-width:.335811pt;stroke-linecap:butt;stroke-linejoin:miter;stroke-opacity:1"/>
  <path d="m19.249 72.77 70.622 180.428 8.103-7.874L26.194 63.08Z" style="fill:#feb400;fill-opacity:1;fill-rule:evenodd;stroke:#000;stroke-width:.335811pt;stroke-linecap:butt;stroke-linejoin:miter;stroke-opacity:1"/>
  <path d="m38.349 55.811 70.803 179.893 7.525-6.965L47.223 53.69Z" style="fill:#fe4900;fill-opacity:1;fill-rule:evenodd;stroke:#000;stroke-width:.335811pt;stroke-linecap:butt;stroke-linejoin:miter;stroke-opacity:1"/>
  <path d="M26.58 64.29 98.03 245.2l10.805-10.6L37.963 54.904Z" style="fill:#fe8300;fill-opacity:1;fill-rule:evenodd;stroke:#000;stroke-width:.335811pt;stroke-linecap:butt;stroke-linejoin:miter;stroke-opacity:1"/>
  <path d="M21.625 78.013c1.364.428 6.56-8.782 14.662-13.022 8.103-4.24 12.673-6.152 13.637-8.271.965-2.12.044-7.126-3.28-7.571-3.48-.466 2.118-9.085-1.736-9.388-3.858-.303-.386-9.085-3.858-8.48-3.854.673-9.647 1.818-16.013 6.057-6.367 4.24-14.663 12.72-15.049 13.93-.385 1.212-.964 6.36 1.93 8.177 2.894 1.817-.193 5.45 3.472 8.48 3.666 3.028.254 11.602 6.235 10.088z" style="fill:url(#h);fill-opacity:1;fill-rule:evenodd;stroke:#000;stroke-width:.335811pt;stroke-linecap:butt;stroke-linejoin:miter;stroke-opacity:1"/>
  <path d="m89.861 253.171 7.977-8.13s1.809 5.11 2.098 9.047c.252 3.43 1.11 7.154-.603 8.555-1.49 1.22-2.58.53-3.762-.909-1.182-1.438-3.666-4.542-4.124-5.413-.458-.87-1.586-3.15-1.586-3.15z" style="fill:#feb400;fill-opacity:1;fill-rule:evenodd;stroke:#000;stroke-width:.335811pt;stroke-linecap:butt;stroke-linejoin:miter;stroke-opacity:1"/>
  <path d="m89.432 251.578.764 1.868 7.707-7.668-.587-1.656z" style="fill:#feb300;fill-opacity:1;fill-rule:evenodd;stroke:none;stroke-width:.335811pt;stroke-linecap:butt;stroke-linejoin:miter;stroke-opacity:1"/>
  <path d="M98.05 245.1s3.752 8.298 5.116 9.85c1.364 1.553 5.657 4.058 7.026 2.677 1.403-1.416 1.398-6.332 1.398-8.78 0-2.462-1.023-8.672-1.228-9.528-.204-.857-1.5-4.658-1.5-4.658z" style="fill:#fe8300;fill-opacity:1;fill-rule:evenodd;stroke:#000;stroke-width:.335811pt;stroke-linecap:butt;stroke-linejoin:miter;stroke-opacity:1"/>
  <path d="m97.846 244.27.665 1.393 10.453-10.172-.614-1.499z" style="fill:#fe8300;fill-opacity:1;fill-rule:evenodd;stroke:none;stroke-width:.335811pt;stroke-linecap:butt;stroke-linejoin:miter;stroke-opacity:1"/>
  <path d="M109.317 235.918s3.762 9.993 4.679 11.205c.916 1.211 2.218 3.028 3.376 3.255 1.157.227 3.376.606 3.28-3.407-.097-4.012.096-7.116-1.061-10.599-1.21-3.638-2.846-7.495-2.846-7.495z" style="fill:#fe4900;fill-opacity:1;fill-rule:evenodd;stroke:#000;stroke-width:.335811pt;stroke-linecap:butt;stroke-linejoin:miter;stroke-opacity:1"/>
  <path d="m116.214 228.196.724 1.59-7.204 6.662-1.081-2.856z" style="fill:#fe4900;fill-opacity:1;fill-rule:evenodd;stroke:none;stroke-width:.335811pt;stroke-linecap:butt;stroke-linejoin:miter;stroke-opacity:1"/>
  <path d="m115.201 285.128 8.296 9.842-.964-14.082s-1.982-5.89-2.412-3.634c-.868 4.543-1.348 5.124-3.858 2.877-2.55-2.28-1.062 4.997-1.062 4.997z" style="fill:#000;fill-opacity:1;fill-rule:evenodd;stroke:#000;stroke-width:.335811pt;stroke-linecap:butt;stroke-linejoin:miter;stroke-opacity:1"/>
</svg>
