<svg version="1.1" id="svg2222" width="212.638" height="91.463" xmlns="http://www.w3.org/2000/svg">
  <g id="layer2" style="display:inline" transform="translate(63.92 131.125)">
    <circle style="opacity:.995392;fill:none;fill-opacity:1;fill-rule:evenodd;stroke:#fdbe12;stroke-width:2.5;stroke-miterlimit:4;stroke-dasharray:none;stroke-opacity:1;paint-order:stroke fill markers" id="path6403" cx="-18.188" cy="-85.394" r="30.75" class="obod"/>
  </g>
  <g id="g2228" style="display:inline" transform="translate(63.92 131.125)">
    <g id="g3221" style="fill:#fdbe12;fill-opacity:1;stroke-width:.0754364;stroke-miterlimit:4;stroke-dasharray:none" transform="translate(-14.262 -109.99) scale(1.32562)">
      <path style="fill:#fdbe12;fill-opacity:1;stroke:#000;stroke-width:.02;stroke-linecap:butt;stroke-linejoin:miter;stroke-miterlimit:4;stroke-dasharray:none;stroke-opacity:1" d="M31.534 18.555H-2.962l4.53 4.53z" id="path2566" class="rays rays_right ray_right_right right_rays"/>
      <path style="fill:#fdbe12;fill-opacity:1;stroke:#000;stroke-width:.03;stroke-linecap:butt;stroke-linejoin:miter;stroke-miterlimit:4;stroke-dasharray:none;stroke-opacity:1" d="M-37.458 18.555h34.496l-4.53-4.53z" id="path2648" class="rays rays_left ray_left_right right_rays"/>
    </g>
    <g id="g3225" style="fill:#fff;stroke-width:.0754364;stroke-miterlimit:4;stroke-dasharray:none" transform="translate(-14.262 -109.99) scale(1.32562)">
      <path style="fill:#fff;stroke:#000;stroke-width:.03;stroke-linecap:butt;stroke-linejoin:miter;stroke-miterlimit:4;stroke-dasharray:none;stroke-opacity:1" d="M-2.962-15.941v34.496l-4.53-4.53z" id="path2753" class="rays rays_top ray_top_left left_rays"/>
      <path style="fill:#fff;stroke:#000;stroke-width:.03;stroke-linecap:butt;stroke-linejoin:miter;stroke-miterlimit:4;stroke-dasharray:none;stroke-opacity:1" d="M-2.962 53.05V18.556l4.53 4.53z" id="path2755" class="rays rays_bottom ray_bottom_left left_rays"/>
    </g>
    <g id="g2931" style="fill:#fff;stroke-width:.150873;stroke-miterlimit:4;stroke-dasharray:none" transform="matrix(-1.32562 0 0 1.32562 53.869 -92.9)">
      <path style="fill:#fff;stroke:#000;stroke-width:.03;stroke-linecap:butt;stroke-linejoin:miter;stroke-miterlimit:4;stroke-dasharray:none;stroke-opacity:1" d="M88.853 5.662H54.357l4.53 4.53z" id="path2927" class="rays rays_left ray_left_left left_rays"/>
      <path style="fill:#fff;stroke:#000;stroke-width:.03;stroke-linecap:butt;stroke-linejoin:miter;stroke-miterlimit:4;stroke-dasharray:none;stroke-opacity:1" d="M19.861 5.662h34.496l-4.53-4.53z" id="path2929" class="rays rays_right ray_right_left left_rays"/>
    </g>
    <g id="g2937" transform="rotate(-90 -19.515 6.178) scale(1.32562)" style="fill:#fdbe12;fill-opacity:1">
      <path style="fill:#fdbe12;fill-opacity:1;stroke:#000;stroke-width:.03;stroke-linecap:butt;stroke-linejoin:miter;stroke-miterlimit:4;stroke-dasharray:none;stroke-opacity:1" d="M88.853 5.662H54.357l4.53 4.53z" id="path2933" class="rays rays_top ray_top_right right_rays"/>
      <path style="fill:#fdbe12;fill-opacity:1;stroke:#000;stroke-width:.03;stroke-linecap:butt;stroke-linejoin:miter;stroke-miterlimit:4;stroke-dasharray:none;stroke-opacity:1" d="M19.861 5.662h34.496l-4.53-4.53z" id="path2935" class="rays rays_bottom ray_bottom_right right_rays"/>
    </g>
    <text xml:space="preserve" style="font-style:normal;font-variant:normal;font-weight:400;font-stretch:normal;font-size:26.6667px;line-height:1.25;font-family:Cambria;-inkscape-font-specification:'Cambria, Normal';font-variant-ligatures:normal;font-variant-caps:normal;font-variant-numeric:normal;font-variant-east-asian:normal;letter-spacing:-.72px;word-spacing:5.14px;fill:#a63831;fill-opacity:.996078" x="-1.971" y="-53.466" id="text37565"><tspan id="tspan37563" x="-1.971" y="-53.466" dx="-2.06" style="font-style:normal;font-variant:normal;font-weight:400;font-stretch:normal;font-size:26.6667px;font-family:Cambria;-inkscape-font-specification:'Cambria, Normal';font-variant-ligatures:normal;font-variant-caps:normal;font-variant-numeric:normal;font-variant-east-asian:normal;fill:#a63831;fill-opacity:.996078" class="text_true_north">TRUE NORTH</tspan></text>
    <text xml:space="preserve" style="font-size:12px;line-height:1.25;font-family:'Cascadia Code';-inkscape-font-specification:'Cascadia Code';letter-spacing:2px;fill:#aa423b;fill-opacity:.996078" x="-1.971" y="-41.147" id="text51519"><tspan id="tspan51517" x="-1.971" y="-41.147" style="font-style:normal;font-variant:normal;font-weight:400;font-stretch:normal;font-size:12px;font-family:Cambria;-inkscape-font-specification:'Cambria, Normal';font-variant-ligatures:normal;font-variant-caps:normal;font-variant-numeric:normal;font-variant-east-asian:normal;fill:#aa423b;fill-opacity:.996078" class="text_list_market">LIST MARKETING LLC</tspan></text>
  </g>
</svg>
